Modulos/trabalho_pratico2_testbench.vcd
$date
	Wed Nov 21 01:17:55 2018
$end
$version
	Icarus Verilog
$end
$timescale
	1s
$end
$scope module trabalho_pratico2_testbench $end
$var wire 1 ! votestatus $end
$var wire 8 " totalvotos_vinicius [7:0] $end
$var wire 8 # totalvotos_random [7:0] $end
$var wire 8 $ totalvotos_nulos [7:0] $end
$var wire 8 % totalvotos_matheus [7:0] $end
$var wire 8 & totalvotos_luis [7:0] $end
$var reg 1 ' clock $end
$var reg 4 ( digit [3:0] $end
$var reg 1 ) finish $end
$var reg 8 * totalvotos_luis_externo [7:0] $end
$var reg 8 + totalvotos_matheus_externo [7:0] $end
$var reg 8 , totalvotos_nulos_externo [7:0] $end
$var reg 8 - totalvotos_random_externo [7:0] $end
$var reg 8 . totalvotos_vinicius_externo [7:0] $end
$var reg 1 / valid $end
$scope module F_trabalho_pratico2 $end
$var wire 1 ' clock $end
$var wire 4 0 digit [3:0] $end
$var wire 1 ) finish $end
$var wire 1 / valid $end
$var reg 4 1 next_state [3:0] $end
$var reg 4 2 state [3:0] $end
$var reg 8 3 totalvotos_luis [7:0] $end
$var reg 8 4 totalvotos_matheus [7:0] $end
$var reg 8 5 totalvotos_nulos [7:0] $end
$var reg 8 6 totalvotos_random [7:0] $end
$var reg 8 7 totalvotos_vinicius [7:0] $end
$var reg 1 ! votestatus $end
$upscope $end
$upscope $end
$enddefinitions $end
#0
$dumpvars
b0 7
b0 6
b0 5
b0 4
b0 3
b0 2
b0 1
bx 0
0/
b0 .
b0 -
b0 ,
b0 +
b0 *
0)
bx (
0'
b0 &
b0 %
b0 $
b0 #
b0 "
0!
$end
#1
1'
#2
0'
b11 (
b11 0
#3
1'
#4
b1 1
0'
1/
#5
b1010 1
b1 2
1'
#6
b1 1
0'
0/
#7
1'
#8
0'
b0 (
b0 0
#9
1'
#10
b10 1
0'
1/
#11
b100 1
b10 2
1'
#12
b10 1
0'
0/
#13
1'
#14
0'
b11 (
b11 0
#15
1'
#16
b11 1
0'
1/
#17
b1100 1
b11 2
1'
#18
b11 1
0'
0/
#19
1'
#20
0'
b1 (
b1 0
#21
1'
#22
b1 %
b1 4
b101 1
0'
1/
#23
b0 1
1!
b101 2
1'
#24
b101 1
0'
0/
#25
1'
#26
b0 1
0'
1/
#27
b1001 1
0!
b0 2
1'
#28
b0 1
0'
0/
#29
1'
#30
0'
b11 (
b11 0
#31
1'
#32
b1 1
0'
1/
#33
b1010 1
b1 2
1'
#34
b1 1
0'
0/
#35
1'
#36
0'
b0 (
b0 0
#37
1'
#38
b10 1
0'
1/
#39
b100 1
b10 2
1'
#40
b10 1
0'
0/
#41
1'
#42
0'
#43
1'
#44
b100 1
0'
1/
#45
b1100 1
b100 2
1'
#46
b100 1
0'
0/
#47
1'
#48
0'
b1001 (
b1001 0
#49
1'
#50
b1 &
b1 3
b101 1
0'
1/
#51
b0 1
1!
b101 2
1'
#52
b101 1
0'
0/
#53
1'
#54
b0 1
0'
1/
#55
b1001 1
0!
b0 2
1'
#56
b0 1
0'
0/
#57
1'
#58
0'
b10 (
b10 0
#59
1'
#60
b110 1
0'
1/
#61
b1010 1
b110 2
1'
#62
b110 1
0'
0/
#63
1'
#64
0'
b110 (
b110 0
#65
1'
#66
b111 1
0'
1/
#67
b1101 1
b111 2
1'
#68
b111 1
0'
0/
#69
1'
#70
0'
b111 (
b111 0
#71
1'
#72
b1000 1
0'
1/
#73
b1100 1
b1000 2
1'
#74
b1000 1
0'
0/
#75
1'
#76
0'
b0 (
b0 0
#77
1'
#78
b1 "
b1 7
b101 1
0'
1/
#79
b0 1
1!
b101 2
1'
#80
b101 1
0'
0/
#81
1'
#82
b0 1
0'
1/
#83
b1001 1
0!
b0 2
1'
#84
b0 1
0'
0/
#85
1'
#86
0'
b10 (
b10 0
#87
1'
#88
b110 1
0'
1/
#89
b1010 1
b110 2
1'
#90
b110 1
0'
0/
#91
1'
#92
0'
b110 (
b110 0
#93
1'
#94
b111 1
0'
1/
#95
b1101 1
b111 2
1'
#96
b111 1
0'
0/
#97
1'
#98
0'
#99
1'
#100
b1101 1
0'
1/
#101
b1100 1
b1101 2
1'
#102
b1101 1
0'
0/
#103
1'
#104
0'
b1000 (
b1000 0
#105
1'
#106
b1 #
b1 6
b101 1
0'
1/
#107
b0 1
1!
b101 2
1'
#108
b101 1
0'
0/
#109
1'
#110
b0 1
0'
1/
#111
b1001 1
0!
b0 2
1'
#112
b0 1
0'
0/
#113
1'
#114
0'
b10 (
b10 0
#115
1'
#116
b110 1
0'
1/
#117
b1010 1
b110 2
1'
#118
b110 1
0'
0/
#119
1'
#120
0'
b11 (
b11 0
#121
1'
#122
b1010 1
0'
1/
#123
b1011 1
b1010 2
1'
#124
b1010 1
0'
0/
#125
1'
#126
0'
b1 (
b1 0
#127
1'
#128
b1011 1
0'
1/
#129
b1100 1
b1011 2
1'
#130
b1011 1
0'
0/
#131
1'
#132
0'
b1000 (
b1000 0
#133
1'
#134
b1100 1
0'
1/
#135
b0 1
b1100 2
1'
#136
b1100 1
0'
0/
#137
b1 $
b1 5
1'
#138
b0 1
0'
1/
#139
b1001 1
b0 2
1'
#140
b0 1
0'
0/
#141
1'
#142
b1 -
b1 .
b1 *
b1 +
b1 ,
0'
1)
#143
b0 #
b0 6
b0 "
b0 7
b0 &
b0 3
b0 %
b0 4
b0 $
b0 5
1'
